<svg xmlns="http://www.w3.org/2000/svg" width="44" height="33.03" viewBox="0 0 44 33.03">
  <defs>
    <style>
      .cls-1 {
        fill: #1b98e0;
        fill-rule: evenodd;
      }
    </style>
  </defs>
  <path id="quote" class="cls-1" d="M1151.49,3784.17l0.65,1.93a34.768,34.768,0,0,0,9.59-6.25,27.385,27.385,0,0,0,6.28-8.49,22.649,22.649,0,0,0,2.19-9.66q0-8.64-8-8.64a11.885,11.885,0,0,0-6.07,1.63,12.267,12.267,0,0,0-4.44,4.38,11.493,11.493,0,0,0-1.62,5.95,6.176,6.176,0,0,0,1.83,4.82,7.477,7.477,0,0,0,5.21,1.66,10.749,10.749,0,0,0,7.64-3.5,15.593,15.593,0,0,1-4.03,9.16,28.611,28.611,0,0,1-9.23,7.01h0Zm23.92,0,0.59,1.93a34.768,34.768,0,0,0,9.59-6.25,27.344,27.344,0,0,0,6.28-8.46,22.615,22.615,0,0,0,2.19-9.69q0-8.64-7.99-8.64a11.833,11.833,0,0,0-6.07,1.63,12.114,12.114,0,0,0-4.44,4.38,11.408,11.408,0,0,0-1.63,5.95,6.232,6.232,0,0,0,1.8,4.82,7.474,7.474,0,0,0,5.24,1.66,10.216,10.216,0,0,0,7.52-3.5,15.822,15.822,0,0,1-3.93,9.16,27.747,27.747,0,0,1-9.15,7.01h0Z" transform="translate(-1150.06 -3753.06)"/>
</svg>
